{
  "controller": {
    "count": 785,
    "current": 1,
    "links": {
      "next": "http://api.wynncraft.com/item/search?fullResult=True&page=2",
      "previous": null
    },
    "next": 2,
    "pages": 40,
    "payload": {
      "type": [
        "ingredients"
      ]
    },
    "previous": null
  },
  "results": {
    "Wood Scrap": {
      "consumableOnlyIDs": {
        "charges": 0,
        "duration": 0
      },
      "identifications": {
        "rawMainAttackDamage": {
          "max": 26,
          "min": 20
        }
      },
      "ingredientPositionModifiers": {
        "above": 0,
        "left": 0,
        "notTouching": 0,
        "right": 0,
        "touching": 0,
        "under": 0
      },
      "internalName": "Wood Scrap",
      "itemOnlyIDs": {
        "agilityRequirement": 0,
        "defenceRequirement": 0,
        "dexterityRequirement": 0,
        "durabilityModifier": -42000,
        "intelligenceRequirement": 0,
        "strengthRequirement": 6
      },
      "material": "435:0",
      "requirements": {
        "level": 75,
        "skills": [
          "woodworking",
          "weaponsmithing"
        ]
      },
      "tier": 0
    },
    "Wood Shavings": {
      "consumableOnlyIDs": {
        "charges": 0,
        "duration": -60
      },
      "identifications": {
        "xpBonus": {
          "max": 3,
          "min": 2
        }
      },
      "ingredientPositionModifiers": {
        "above": 0,
        "left": 0,
        "notTouching": 0,
        "right": 0,
        "touching": 0,
        "under": 0
      },
      "internalName": "Wood Shavings",
      "itemOnlyIDs": {
        "agilityRequirement": 0,
        "defenceRequirement": 0,
        "dexterityRequirement": 0,
        "durabilityModifier": -31000,
        "intelligenceRequirement": 0,
        "strengthRequirement": 0
      },
      "material": "351:3",
      "requirements": {
        "level": 43,
        "skills": [
          "scribing",
          "woodworking"
        ]
      },
      "tier": 0
    },
    "Wood Snippet": {
      "consumableOnlyIDs": {
        "charges": 0,
        "duration": 0
      },
      "identifications": {
        "rawHealth": {
          "max": 20,
          "min": 10
        }
      },
      "ingredientPositionModifiers": {
        "above": 0,
        "left": 0,
        "notTouching": 0,
        "right": 0,
        "touching": 0,
        "under": 0
      },
      "internalName": "Wood Snippet",
      "itemOnlyIDs": {
        "agilityRequirement": 0,
        "defenceRequirement": 0,
        "dexterityRequirement": 0,
        "durabilityModifier": -23000,
        "intelligenceRequirement": 0,
        "strengthRequirement": 0
      },
      "material": "351:3",
      "requirements": {
        "level": 16,
        "skills": [
          "weaponsmithing",
          "woodworking"
        ]
      },
      "tier": 0
    },
    "Wool": {
      "consumableOnlyIDs": {
        "charges": 0,
        "duration": 0
      },
      "identifications": {
        "airDefence": {
          "max": 2,
          "min": 1
        },
        "waterDefence": {
          "max": 2,
          "min": 1
        }
      },
      "ingredientPositionModifiers": {
        "above": 0,
        "left": 0,
        "notTouching": 0,
        "right": 0,
        "touching": 0,
        "under": 0
      },
      "internalName": "Wool",
      "itemOnlyIDs": {
        "agilityRequirement": 0,
        "defenceRequirement": 0,
        "dexterityRequirement": 0,
        "durabilityModifier": -17000,
        "intelligenceRequirement": 0,
        "strengthRequirement": 0
      },
      "material": "35:0",
      "requirements": {
        "level": 1,
        "skills": [
          "tailoring",
          "armouring"
        ]
      },
      "tier": 0
    },
    "Wooly Armour": {
      "consumableOnlyIDs": {
        "charges": 0,
        "duration": 0
      },
      "identifications": {
        "airDefence": {
          "max": 5,
          "min": 2
        },
        "waterDefence": {
          "max": 5,
          "min": 2
        }
      },
      "ingredientPositionModifiers": {
        "above": 0,
        "left": 0,
        "notTouching": 0,
        "right": 0,
        "touching": 0,
        "under": 0
      },
      "internalName": "Wooly Armour",
      "itemOnlyIDs": {
        "agilityRequirement": 0,
        "defenceRequirement": 0,
        "dexterityRequirement": 0,
        "durabilityModifier": -26000,
        "intelligenceRequirement": 0,
        "strengthRequirement": 0
      },
      "material": "171:0",
      "requirements": {
        "level": 10,
        "skills": [
          "tailoring"
        ]
      },
      "tier": 1
    },
    "World Illuminator": {
      "consumableOnlyIDs": {
        "charges": 0,
        "duration": -125
      },
      "identifications": {
        "rawIntelligence": {
          "max": 7,
          "min": 5
        },
        "waterDefence": {
          "max": 10,
          "min": 8
        }
      },
      "ingredientPositionModifiers": {
        "above": 0,
        "left": 0,
        "notTouching": 0,
        "right": 0,
        "touching": 0,
        "under": 0
      },
      "internalName": "World Illuminator",
      "itemOnlyIDs": {
        "agilityRequirement": 0,
        "defenceRequirement": 0,
        "dexterityRequirement": 0,
        "durabilityModifier": -88000,
        "intelligenceRequirement": 12,
        "strengthRequirement": 0
      },
      "material": "169:0",
      "requirements": {
        "level": 77,
        "skills": [
          "armouring",
          "alchemism"
        ]
      },
      "tier": 2
    },
    "Worn Coin": {
      "consumableOnlyIDs": {
        "charges": 0,
        "duration": 0
      },
      "identifications": {
        "lootBonus": {
          "max": 4,
          "min": 2
        },
        "walkSpeed": {
          "max": -3,
          "min": -5
        }
      },
      "ingredientPositionModifiers": {
        "above": 0,
        "left": 0,
        "notTouching": 0,
        "right": 0,
        "touching": 0,
        "under": 0
      },
      "internalName": "Worn Coin",
      "itemOnlyIDs": {
        "agilityRequirement": 0,
        "defenceRequirement": 0,
        "dexterityRequirement": 0,
        "durabilityModifier": -37000,
        "intelligenceRequirement": 0,
        "strengthRequirement": 0
      },
      "material": "402:0",
      "requirements": {
        "level": 26,
        "skills": [
          "armouring",
          "tailoring",
          "woodworking",
          "weaponsmithing"
        ]
      },
      "tier": 1
    },
    "Worn Memorabilia": {
      "consumableOnlyIDs": {
        "charges": 0,
        "duration": 0
      },
      "identifications": {
        "healthRegen": {
          "max": 2,
          "min": 2
        }
      },
      "ingredientPositionModifiers": {
        "above": 0,
        "left": 0,
        "notTouching": 0,
        "right": 0,
        "touching": 0,
        "under": 0
      },
      "internalName": "Worn Memorabilia",
      "itemOnlyIDs": {
        "agilityRequirement": 0,
        "defenceRequirement": 0,
        "dexterityRequirement": 0,
        "durabilityModifier": -23000,
        "intelligenceRequirement": 0,
        "strengthRequirement": 0
      },
      "material": "336:0",
      "requirements": {
        "level": 16,
        "skills": [
          "jeweling",
          "tailoring"
        ]
      },
      "tier": 0
    },
    "Wriggling Darkness": {
      "consumableOnlyIDs": {
        "charges": 0,
        "duration": 0
      },
      "identifications": {
        "lifeSteal": {
          "max": 40,
          "min": 30
        },
        "thunderDamage": {
          "max": 8,
          "min": 4
        }
      },
      "ingredientPositionModifiers": {
        "above": 0,
        "left": 0,
        "notTouching": 0,
        "right": 0,
        "touching": 0,
        "under": 0
      },
      "internalName": "Wriggling Darkness",
      "itemOnlyIDs": {
        "agilityRequirement": 0,
        "defenceRequirement": 0,
        "dexterityRequirement": 20,
        "durabilityModifier": -58000,
        "intelligenceRequirement": 0,
        "strengthRequirement": 0
      },
      "material": "351:0",
      "requirements": {
        "level": 70,
        "skills": [
          "weaponsmithing",
          "woodworking"
        ]
      },
      "tier": 1
    },
    "Wriggling Wooden Arm": {
      "consumableOnlyIDs": {
        "charges": 0,
        "duration": 0
      },
      "identifications": {
        "fireDefence": {
          "max": -10,
          "min": -14
        },
        "mainAttackDamage": {
          "max": 9,
          "min": 8
        }
      },
      "ingredientPositionModifiers": {
        "above": 0,
        "left": 0,
        "notTouching": 0,
        "right": 0,
        "touching": 0,
        "under": 0
      },
      "internalName": "Wriggling Wooden Arm",
      "itemOnlyIDs": {
        "agilityRequirement": 0,
        "defenceRequirement": 0,
        "dexterityRequirement": 0,
        "durabilityModifier": -70000,
        "intelligenceRequirement": 0,
        "strengthRequirement": 0
      },
      "material": "280:0",
      "requirements": {
        "level": 50,
        "skills": [
          "woodworking"
        ]
      },
      "tier": 2
    },
    "Wybel Fluff": {
      "consumableOnlyIDs": {
        "charges": 0,
        "duration": 0
      },
      "identifications": {
        "rawDefence": {
          "max": 3,
          "min": 2
        }
      },
      "ingredientPositionModifiers": {
        "above": 0,
        "left": 0,
        "notTouching": 0,
        "right": 0,
        "touching": 0,
        "under": 0
      },
      "internalName": "Wybel Fluff",
      "itemOnlyIDs": {
        "agilityRequirement": 0,
        "defenceRequirement": 0,
        "dexterityRequirement": 0,
        "durabilityModifier": -49000,
        "intelligenceRequirement": 0,
        "strengthRequirement": 0
      },
      "material": "287:0",
      "requirements": {
        "level": 90,
        "skills": [
          "tailoring"
        ]
      },
      "tier": 0
    },
    "Wybel Taffy": {
      "consumableOnlyIDs": {
        "charges": 0,
        "duration": 0
      },
      "identifications": {
        "rawDefence": {
          "max": 3,
          "min": 1
        }
      },
      "ingredientPositionModifiers": {
        "above": 0,
        "left": 0,
        "notTouching": 0,
        "right": 0,
        "touching": 0,
        "under": 0
      },
      "internalName": "Wybel Taffy",
      "itemOnlyIDs": {
        "agilityRequirement": 0,
        "defenceRequirement": 0,
        "dexterityRequirement": 0,
        "durabilityModifier": 0,
        "intelligenceRequirement": 0,
        "strengthRequirement": 0
      },
      "material": "351:5",
      "requirements": {
        "level": 65,
        "skills": [
          "alchemism",
          "cooking"
        ]
      },
      "tier": 0
    },
    "Yale Leather": {
      "consumableOnlyIDs": {
        "charges": 0,
        "duration": 0
      },
      "identifications": {
        "fireDefence": {
          "max": 6,
          "min": 3
        },
        "rawStrength": {
          "max": 3,
          "min": 1
        }
      },
      "ingredientPositionModifiers": {
        "above": 0,
        "left": 0,
        "notTouching": 0,
        "right": 0,
        "touching": 0,
        "under": 0
      },
      "internalName": "Orc Skin",
      "itemOnlyIDs": {
        "agilityRequirement": 0,
        "defenceRequirement": 5,
        "dexterityRequirement": 0,
        "durabilityModifier": -40000,
        "intelligenceRequirement": 0,
        "strengthRequirement": 5
      },
      "material": "334:0",
      "requirements": {
        "level": 63,
        "skills": [
          "tailoring",
          "armouring"
        ]
      },
      "tier": 0
    },
    "Yeti Fur": {
      "consumableOnlyIDs": {
        "charges": 0,
        "duration": 0
      },
      "identifications": {
        "airDefence": {
          "max": 9,
          "min": 7
        },
        "fireDefence": {
          "max": -7,
          "min": -9
        },
        "waterDefence": {
          "max": 9,
          "min": 7
        }
      },
      "ingredientPositionModifiers": {
        "above": 0,
        "left": 0,
        "notTouching": 0,
        "right": 0,
        "touching": 0,
        "under": 0
      },
      "internalName": "Yeti Fur",
      "itemOnlyIDs": {
        "agilityRequirement": 0,
        "defenceRequirement": 0,
        "dexterityRequirement": 0,
        "durabilityModifier": -68000,
        "intelligenceRequirement": 0,
        "strengthRequirement": 0
      },
      "material": "287:0",
      "requirements": {
        "level": 48,
        "skills": [
          "armouring",
          "tailoring"
        ]
      },
      "tier": 2
    },
    "Zhight Coral Piece": {
      "consumableOnlyIDs": {
        "charges": 0,
        "duration": 0
      },
      "identifications": {
        "fireDefence": {
          "max": 4,
          "min": 1
        },
        "waterDefence": {
          "max": 6,
          "min": 4
        }
      },
      "ingredientPositionModifiers": {
        "above": 0,
        "left": 0,
        "notTouching": 0,
        "right": 0,
        "touching": 0,
        "under": 0
      },
      "internalName": "Zhight Coral Piece",
      "itemOnlyIDs": {
        "agilityRequirement": 0,
        "defenceRequirement": 0,
        "dexterityRequirement": 0,
        "durabilityModifier": -52000,
        "intelligenceRequirement": 12,
        "strengthRequirement": 0
      },
      "material": "377:0",
      "requirements": {
        "level": 57,
        "skills": [
          "armouring",
          "tailoring"
        ]
      },
      "tier": 1
    },
    "Zhight Herbal Mix": {
      "consumableOnlyIDs": {
        "charges": 0,
        "duration": 24
      },
      "identifications": {
        "mainAttackDamage": {
          "max": -1,
          "min": -4
        },
        "spellDamage": {
          "max": -1,
          "min": -4
        }
      },
      "ingredientPositionModifiers": {
        "above": 0,
        "left": 0,
        "notTouching": 0,
        "right": 0,
        "touching": 0,
        "under": 0
      },
      "internalName": "Zhight Herbal Mix",
      "itemOnlyIDs": {
        "agilityRequirement": 0,
        "defenceRequirement": 0,
        "dexterityRequirement": 0,
        "durabilityModifier": 0,
        "intelligenceRequirement": 0,
        "strengthRequirement": 0
      },
      "material": "362:0",
      "requirements": {
        "level": 55,
        "skills": [
          "cooking",
          "scribing",
          "alchemism"
        ]
      },
      "tier": 0
    },
    "Zhight Shiny Stone": {
      "consumableOnlyIDs": {
        "charges": 0,
        "duration": 0
      },
      "identifications": {
        "lootBonus": {
          "max": 6,
          "min": 2
        },
        "xpBonus": {
          "max": 4,
          "min": 2
        }
      },
      "ingredientPositionModifiers": {
        "above": 0,
        "left": 0,
        "notTouching": 0,
        "right": 0,
        "touching": 0,
        "under": 0
      },
      "internalName": "Zhight Shiny Stone",
      "itemOnlyIDs": {
        "agilityRequirement": 0,
        "defenceRequirement": 0,
        "dexterityRequirement": 0,
        "durabilityModifier": -52000,
        "intelligenceRequirement": 0,
        "strengthRequirement": 0
      },
      "material": "406:0",
      "requirements": {
        "level": 57,
        "skills": [
          "weaponsmithing",
          "woodworking"
        ]
      },
      "tier": 1
    },
    "Zhight Weird Magic Rock": {
      "consumableOnlyIDs": {
        "charges": 0,
        "duration": 0
      },
      "identifications": {
        "soulPointRegen": {
          "max": 10,
          "min": 5
        },
        "spellDamage": {
          "max": 6,
          "min": 3
        }
      },
      "ingredientPositionModifiers": {
        "above": 0,
        "left": 0,
        "notTouching": 0,
        "right": 0,
        "touching": 0,
        "under": 0
      },
      "internalName": "Zhight Weird Magic Rock",
      "itemOnlyIDs": {
        "agilityRequirement": 0,
        "defenceRequirement": 0,
        "dexterityRequirement": 0,
        "durabilityModifier": -37000,
        "intelligenceRequirement": 0,
        "strengthRequirement": 0
      },
      "material": "433:0",
      "requirements": {
        "level": 58,
        "skills": [
          "weaponsmithing",
          "woodworking",
          "armouring",
          "tailoring"
        ]
      },
      "tier": 2
    },
    "Zombie Brain": {
      "consumableOnlyIDs": {
        "charges": 0,
        "duration": 0
      },
      "identifications": {
        "gatherXpBonus": {
          "max": 1,
          "min": 1
        }
      },
      "ingredientPositionModifiers": {
        "above": 0,
        "left": 0,
        "notTouching": 0,
        "right": 0,
        "touching": 0,
        "under": 0
      },
      "internalName": "Zombie Brain",
      "itemOnlyIDs": {
        "agilityRequirement": 0,
        "attackSpeedModifier": 0,
        "defenceRequirement": 0,
        "dexterityRequirement": 0,
        "durabilityModifier": -26000,
        "intelligenceRequirement": 0,
        "powderSlotModifier": 0,
        "strengthRequirement": 0
      },
      "material": "372:0",
      "requirements": {
        "level": 4,
        "skills": [
          "armouring",
          "tailoring"
        ]
      },
      "tier": 1
    },
    "Zombie Eye": {
      "consumableOnlyIDs": {
        "charges": 0,
        "duration": 0
      },
      "identifications": {
        "rawMainAttackDamage": {
          "max": 15,
          "min": 8
        },
        "rawStrength": {
          "max": 2,
          "min": 1
        }
      },
      "ingredientPositionModifiers": {
        "above": 0,
        "left": 0,
        "notTouching": 0,
        "right": 0,
        "touching": 0,
        "under": 0
      },
      "internalName": "Zombie Eye",
      "itemOnlyIDs": {
        "agilityRequirement": 0,
        "defenceRequirement": 0,
        "dexterityRequirement": 0,
        "durabilityModifier": -37000,
        "intelligenceRequirement": 0,
        "strengthRequirement": 8
      },
      "material": "375:0",
      "requirements": {
        "level": 54,
        "skills": [
          "armouring",
          "tailoring",
          "weaponsmithing",
          "woodworking"
        ]
      },
      "tier": 0
    }
  }
}
