{"controller":{"count":3850,"current":1,"links":{"next":"http://api.wynncraft.com/item/search?fullResult=True&page=2","previous":null},"next":2,"pages":193,"payload":{"type":["weapons","armour","accessories"]},"previous":null},"results":{"Twist Band":{"accessoryType":"bracelet","dropRestriction":"lootchest","identifications":{"rawAgility":4,"rawSpellDamage":{"max":16,"min":4,"raw":12},"reflection":{"max":8,"min":2,"raw":6},"thorns":{"max":8,"min":2,"raw":6}},"internalName":"Twist Band","material":"259:45","requirements":{"agility":10,"intelligence":10,"level":49},"tier":"unique"},"Union":{"accessoryType":"bracelet","dropRestriction":"lootchest","identifications":{"rawAgility":1,"rawDefence":1,"rawDexterity":1,"rawIntelligence":1,"rawStrength":1,"xpBonus":{"max":10,"min":2,"raw":8}},"internalName":"Union","material":"259:35","requirements":{"agility":5,"defence":5,"dexterity":5,"intelligence":5,"level":39,"strength":5},"tier":"rare"},"Used Wolf Paw":{"accessoryType":"bracelet","base":{"airDefence":6,"earthDefence":6,"health":31},"dropMeta":{"coordinates":[1233,31,-1295],"name":"Rymek","type":"merchant"},"dropRestriction":"never","identifications":{"airDamage":3,"earthDamage":3,"mainAttackDamage":3,"walkSpeed":3},"identified":true,"internalName":"Used Wolf Paw","lore":"It looks more like a dog paw to you, but you don't feel like risking your life arguing with the merchant.","material":"259:35","requirements":{"agility":8,"level":30,"strength":8},"tier":"unique"},"Value":{"accessoryType":"bracelet","dropMeta":{"coordinates":[933,117,-5494],"name":"Eltom","type":"merchant"},"dropRestriction":"never","identifications":{"lootBonus":15,"xpBonus":10},"identified":true,"internalName":"Value","material":"259:36","requirements":{"level":91},"tier":"unique"},"Vanguard":{"accessoryType":"bracelet","dropMeta":{"coordinates":[-861,123,-4896],"name":"Corrupted Infested Pit","type":"dungeonMerchant"},"dropRestriction":"never","identifications":{"lootBonus":10,"mainAttackDamage":10,"spellDamage":10,"xpBonus":15},"identified":true,"internalName":"Vanguard","material":"259:48","requirements":{"level":77},"restrictions":"Untradable","tier":"legendary"},"Veneration":{"accessoryType":"bracelet","base":{"waterDefence":-65},"dropMeta":{"coordinates":[-732,100,-6412],"name":"Orphion's Nexus of Light","type":"raid"},"dropRestriction":"never","identifications":{"1stSpellCost":{"max":8,"min":16,"raw":12},"3rdSpellCost":{"max":8,"min":16,"raw":12},"fireDamage":{"max":21,"min":5,"raw":16},"manaSteal":{"max":8,"min":2,"raw":6},"thunderDamage":{"max":21,"min":5,"raw":16}},"internalName":"Veneration","lore":"Revel in the respect you've finally earned.","material":"259:40","requirements":{"defence":45,"dexterity":55,"level":80},"tier":"fabled"},"Vertebra":{"accessoryType":"bracelet","dropMeta":{"coordinates":[-901,62,-1886],"name":"Decrepit Sewers","type":"dungeon"},"dropRestriction":"dungeon","identifications":{"rawDefence":4,"rawHealth":{"max":10,"min":2,"raw":8}},"internalName":"Vertebra","material":"259:35","requirements":{"level":8},"tier":"unique"},"Vindicator":{"accessoryType":"bracelet","base":{"health":50},"dropRestriction":"never","identifications":{"lootBonus":{"max":9,"min":2,"raw":7},"xpBonus":{"max":9,"min":2,"raw":7}},"internalName":"Vindicator","majorIds":{"description":"&b+Magnet: &3Pulls items dropped by mobs towards you","name":"Magnet"},"material":"259:47","requirements":{"level":30,"quest":"The Mercenary"},"tier":"fabled"},"Vitre":{"accessoryType":"bracelet","dropMeta":{"coordinates":[-254,80,-1046],"name":"Timelost Sanctum","type":"dungeonMerchant"},"dropRestriction":"never","identifications":{"rawDefence":-5,"rawIntelligence":5},"identified":true,"internalName":"Vitre","lore":"\"They say the eyes are the windows to the soul. That's ridiculous, ocular fluids are primarily opaque.\" -Ragon, Elemental Researcher ","material":"259:45","requirements":{"level":29},"restrictions":"Untradable","tier":"unique"},"Vitriol":{"accessoryType":"bracelet","base":{"earthDefence":10,"health":-60,"waterDefence":-5},"dropRestriction":"lootchest","identifications":{"healthRegen":{"max":-7,"min":-13,"raw":-10},"lifeSteal":{"max":16,"min":4,"raw":12},"poison":{"max":108,"min":25,"raw":83}},"internalName":"Vitriol","material":"259:37","requirements":{"level":39,"strength":15},"tier":"unique"},"Volmor's Flair":{"accessoryType":"bracelet","dropRestriction":"lootchest","identifications":{"lootBonus":{"max":17,"min":4,"raw":13},"rawHealth":{"max":-525,"min":-975,"raw":-750},"xpBonus":{"max":7,"min":2,"raw":5}},"internalName":"Volmor's Flair","material":"259:48","requirements":{"level":85},"tier":"rare"},"Vortex Bracer":{"accessoryType":"bracelet","base":{"airDefence":40,"fireDefence":-40,"health":400},"dropMeta":{"coordinates":[373,64,-5497],"name":"The Qira Hive","type":"quest"},"dropRestriction":"never","identifications":{"airDamage":12,"rawMainAttackDamage":85,"rawSpellDamage":65,"walkSpeed":10},"identified":true,"internalName":"Vortex Bracer","material":"259:44","requirements":{"agility":30,"level":86},"restrictions":"Untradable","tier":"rare"},"Watch Bracelet":{"accessoryType":"bracelet","dropRestriction":"never","identifications":{"airDamage":5,"earthDamage":5,"fireDamage":5,"lootBonus":6,"thunderDamage":5,"waterDamage":5},"identified":true,"internalName":"Watch Bracelet","material":"259:48","requirements":{"level":86},"restrictions":"Untradable","tier":"set"},"Weighted Nimble Fingers":{"accessoryType":"bracelet","base":{"health":60},"dropMeta":{"coordinates":[1233,31,-1295],"name":"Rymek","type":"merchant"},"dropRestriction":"never","identifications":{"lootBonus":4,"mainAttackDamage":-5,"rawDexterity":4,"stealing":3},"identified":true,"internalName":"Weighted Nimble Fingers","lore":"The extra metal on the glove completely defeats the purpose... It's unclear why it was re-smithed like this.","material":"259:39","requirements":{"dexterity":25,"level":41},"tier":"unique"},"Whirl":{"accessoryType":"bracelet","base":{"airDefence":20,"thunderDefence":-30},"dropMeta":{"coordinates":[-581,30,-3545],"name":"Galleon's Graveyard","type":"dungeon"},"dropRestriction":"dungeon","identifications":{"earthDamage":{"max":-7,"min":-13,"raw":-10},"spellDamage":{"max":12,"min":3,"raw":9},"thunderDefence":{"max":-7,"min":-13,"raw":-10},"walkSpeed":{"max":12,"min":3,"raw":9}},"internalName":"Whirl","material":"259:46","requirements":{"agility":25,"intelligence":20,"level":64},"tier":"unique"},"Wolf Paw":{"accessoryType":"bracelet","base":{"airDefence":5,"earthDefence":5},"dropRestriction":"lootchest","identifications":{"airDamage":{"max":5,"min":1,"raw":4},"earthDamage":{"max":5,"min":1,"raw":4},"mainAttackDamage":{"max":5,"min":1,"raw":4},"walkSpeed":{"max":5,"min":1,"raw":4}},"internalName":"Wolf Paw","material":"259:35","requirements":{"agility":8,"level":30,"strength":8},"tier":"unique"},"Worry":{"accessoryType":"bracelet","dropRestriction":"lootchest","identifications":{"rawIntelligence":3,"reflection":{"max":7,"min":2,"raw":5},"soulPointRegen":{"max":4,"min":1,"raw":3}},"internalName":"Worry","material":"259:45","requirements":{"level":11},"tier":"rare"},"Wristviewer":{"accessoryType":"bracelet","dropMeta":{"coordinates":[-1663,49,-2352],"name":"Relos","type":"merchant"},"dropRestriction":"never","identifications":{"airDamage":4,"earthDamage":4,"fireDamage":4,"spellDamage":4,"thunderDamage":4,"waterDamage":4,"xpBonus":9},"identified":true,"internalName":"Wristviewer","material":"259:48","requirements":{"level":86},"tier":"unique"},"Zhight Coral Band":{"accessoryType":"bracelet","base":{"health":200,"waterDefence":35},"dropMeta":{"coordinates":[-533,39,-2747],"name":"Zhight Island","type":"merchant"},"dropRestriction":"never","identifications":{"healthRegenRaw":15,"spellDamage":-6,"thunderDamage":-8,"waterDefence":10},"identified":true,"internalName":"Zhight Coral Band","material":"259:46","requirements":{"defence":30,"intelligence":15,"level":55,"quest":"Zhight Island"},"tier":"rare"},"Zhight Powwow Bangle":{"accessoryType":"bracelet","base":{"airDefence":5,"earthDefence":5,"fireDefence":5,"thunderDefence":5,"waterDefence":5},"dropMeta":{"coordinates":[-533,39,-2747],"name":"Zhight Island","type":"merchant"},"dropRestriction":"never","identifications":{"airDamage":7,"earthDamage":7,"fireDamage":7,"lootBonus":9,"soulPointRegen":12,"stealing":5,"thunderDamage":7,"waterDamage":7,"xpBonus":9},"identified":true,"internalName":"Zhight Powwow Bangle","material":"259:36","requirements":{"agility":6,"defence":6,"dexterity":6,"intelligence":6,"level":55,"quest":"Zhight Island","strength":6},"tier":"unique"}}}
