{
  "controller": {
    "count": 288,
    "current": 1,
    "links": {
      "next": "http://api.wynncraft.com/item/search?fullResult=True&page=2",
      "previous": null
    },
    "next": 2,
    "pages": 15,
    "payload": {
      "type": [
        "materials"
      ]
    },
    "previous": null
  },
  "results": {
    "Trout Oil 2": {
      "craftable": [
        "scrolls",
        "rings",
        "bracelets",
        "necklaces",
        "potions"
      ],
      "internalName": "Refined Trout Oil 2",
      "material": "279:39",
      "requirements": {
        "level": 10,
        "skills": "fishing"
      },
      "tier": 2
    },
    "Trout Oil 3": {
      "craftable": [
        "scrolls",
        "rings",
        "bracelets",
        "necklaces",
        "potions"
      ],
      "internalName": "Refined Trout Oil 3",
      "material": "279:39",
      "requirements": {
        "level": 10,
        "skills": "fishing"
      },
      "tier": 3
    },
    "Voidstone Gem 1": {
      "craftable": [
        "rings",
        "bracelets",
        "necklaces"
      ],
      "internalName": "Refined Voidstone Gem 1",
      "material": "279:66",
      "requirements": {
        "level": 100,
        "skills": "mining"
      },
      "tier": 1
    },
    "Voidstone Gem 2": {
      "craftable": [
        "rings",
        "bracelets",
        "necklaces"
      ],
      "internalName": "Refined Voidstone Gem 2",
      "material": "279:66",
      "requirements": {
        "level": 100,
        "skills": "mining"
      },
      "tier": 2
    },
    "Voidstone Gem 3": {
      "craftable": [
        "rings",
        "bracelets",
        "necklaces"
      ],
      "internalName": "Refined Voidstone Gem 3",
      "material": "279:66",
      "requirements": {
        "level": 100,
        "skills": "mining"
      },
      "tier": 3
    },
    "Voidstone Ingot 1": {
      "craftable": [
        "spears",
        "daggers",
        "boots",
        "leggings",
        "helmets",
        "chestplates"
      ],
      "internalName": "Refined Voidstone Ingot 1",
      "material": "279:55",
      "requirements": {
        "level": 100,
        "skills": "mining"
      },
      "tier": 1
    },
    "Voidstone Ingot 2": {
      "craftable": [
        "spears",
        "daggers",
        "boots",
        "leggings",
        "helmets",
        "chestplates"
      ],
      "internalName": "Refined Voidstone Ingot 2",
      "material": "279:55",
      "requirements": {
        "level": 100,
        "skills": "mining"
      },
      "tier": 2
    },
    "Voidstone Ingot 3": {
      "craftable": [
        "spears",
        "daggers",
        "boots",
        "leggings",
        "helmets",
        "chestplates"
      ],
      "internalName": "Refined Voidstone Ingot 3",
      "material": "279:55",
      "requirements": {
        "level": 100,
        "skills": "mining"
      },
      "tier": 3
    },
    "Wheat Grains 1": {
      "craftable": [
        "potions",
        "food"
      ],
      "internalName": "Refined Wheat Grains 1",
      "material": "279:14",
      "requirements": {
        "level": 1,
        "skills": "farming"
      },
      "tier": 1
    },
    "Wheat Grains 2": {
      "craftable": [
        "potions",
        "food"
      ],
      "internalName": "Refined Wheat Grains 2",
      "material": "279:14",
      "requirements": {
        "level": 1,
        "skills": "farming"
      },
      "tier": 2
    },
    "Wheat Grains 3": {
      "craftable": [
        "potions",
        "food"
      ],
      "internalName": "Refined Wheat Grains 3",
      "material": "279:14",
      "requirements": {
        "level": 1,
        "skills": "farming"
      },
      "tier": 3
    },
    "Wheat String 1": {
      "craftable": [
        "boots",
        "leggings",
        "bows",
        "wands"
      ],
      "internalName": "Refined Wheat String 1",
      "material": "279:13",
      "requirements": {
        "level": 1,
        "skills": "farming"
      },
      "tier": 1
    },
    "Wheat String 2": {
      "craftable": [
        "boots",
        "leggings",
        "bows",
        "wands"
      ],
      "internalName": "Refined Wheat String 2",
      "material": "279:13",
      "requirements": {
        "level": 1,
        "skills": "farming"
      },
      "tier": 2
    },
    "Wheat String 3": {
      "craftable": [
        "boots",
        "leggings",
        "bows",
        "wands"
      ],
      "internalName": "Refined Wheat String 3",
      "material": "279:13",
      "requirements": {
        "level": 1,
        "skills": "farming"
      },
      "tier": 3
    },
    "Willow Paper 1": {
      "craftable": [
        "scrolls",
        "helmets",
        "chestplates"
      ],
      "internalName": "Refined Willow Paper 1",
      "material": "279:40",
      "requirements": {
        "level": 20,
        "skills": "woodcutting"
      },
      "tier": 1
    },
    "Willow Paper 2": {
      "craftable": [
        "scrolls",
        "helmets",
        "chestplates"
      ],
      "internalName": "Refined Willow Paper 2",
      "material": "279:40",
      "requirements": {
        "level": 20,
        "skills": "woodcutting"
      },
      "tier": 2
    },
    "Willow Paper 3": {
      "craftable": [
        "scrolls",
        "helmets",
        "chestplates"
      ],
      "internalName": "Refined Willow Paper 3",
      "material": "279:40",
      "requirements": {
        "level": 20,
        "skills": "woodcutting"
      },
      "tier": 3
    },
    "Willow Wood 1": {
      "craftable": [
        "spears",
        "daggers",
        "bows",
        "wands"
      ],
      "internalName": "Refined Willow Wood 1",
      "requirements": {
        "level": 20,
        "skills": "woodcutting"
      },
      "skin": "33d48602ca7f62d84cf9888a7386d96e4afd4b08e0dd1c1b123ba65157331a1d",
      "tier": 1
    },
    "Willow Wood 2": {
      "craftable": [
        "spears",
        "daggers",
        "bows",
        "wands"
      ],
      "internalName": "Refined Willow Wood 2",
      "requirements": {
        "level": 20,
        "skills": "woodcutting"
      },
      "skin": "33d48602ca7f62d84cf9888a7386d96e4afd4b08e0dd1c1b123ba65157331a1d",
      "tier": 2
    },
    "Willow Wood 3": {
      "craftable": [
        "spears",
        "daggers",
        "bows",
        "wands"
      ],
      "internalName": "Refined Willow Wood 3",
      "requirements": {
        "level": 20,
        "skills": "woodcutting"
      },
      "skin": "33d48602ca7f62d84cf9888a7386d96e4afd4b08e0dd1c1b123ba65157331a1d",
      "tier": 3
    }
  }
}
