{
  "controller": {
    "count": 90,
    "current": 1,
    "links": {
      "next": "http://api.wynncraft.com/item/search?fullResult=True&page=2",
      "previous": null
    },
    "next": 2,
    "pages": 5,
    "payload": {
      "type": [
        "tomes"
      ]
    },
    "previous": null
  },
  "results": {
    "Barbarian's Tome of Allegiance": {
      "dropMeta": {
        "coordinates": [
          99999,
          99999,
          99999
        ],
        "name": "Guild Rewards",
        "type": "guild"
      },
      "dropRestriction": "never",
      "identifications": {
        "rawAgility": 2,
        "rawStrength": 2
      },
      "internalName": "Barbarian's Tome of Allegiance",
      "material": "403:0",
      "requirements": {
        "level": 100,
        "tomeSeeking": true
      },
      "restrictions": "Untradable",
      "tier": "legendary",
      "tomeType": "guildtome",
      "tomeVariant": "mastery"
    },
    "Brute's Tome of Allegiance": {
      "dropMeta": {
        "coordinates": [
          99999,
          99999,
          99999
        ],
        "name": "Guild Rewards",
        "type": "guild"
      },
      "dropRestriction": "never",
      "identifications": {
        "earthDamage": {
          "max": 7,
          "min": 2,
          "raw": 5
        },
        "rawStrength": 3
      },
      "internalName": "Brute's Tome of Allegiance",
      "material": "403:0",
      "requirements": {
        "level": 100,
        "tomeSeeking": true
      },
      "restrictions": "Untradable",
      "tier": "legendary",
      "tomeType": "guildtome",
      "tomeVariant": "mastery"
    },
    "Destroyer's Tome of Allegiance": {
      "dropMeta": {
        "coordinates": [
          99999,
          99999,
          99999
        ],
        "name": "Guild Rewards",
        "type": "guild"
      },
      "dropRestriction": "never",
      "identifications": {
        "rawDefence": 2,
        "rawStrength": 2
      },
      "internalName": "Destroyer's Tome of Allegiance",
      "material": "403:0",
      "requirements": {
        "level": 100,
        "tomeSeeking": true
      },
      "restrictions": "Untradable",
      "tier": "legendary",
      "tomeType": "guildtome",
      "tomeVariant": "mastery"
    },
    "Devil's Tome of Allegiance": {
      "dropMeta": {
        "coordinates": [
          99999,
          99999,
          99999
        ],
        "name": "Guild Rewards",
        "type": "guild"
      },
      "dropRestriction": "never",
      "identifications": {
        "rawDefence": 2,
        "rawDexterity": 2
      },
      "internalName": "Devil's Tome of Allegiance",
      "material": "403:0",
      "requirements": {
        "level": 100,
        "tomeSeeking": true
      },
      "restrictions": "Untradable",
      "tier": "legendary",
      "tomeType": "guildtome",
      "tomeVariant": "mastery"
    },
    "Fanatic's Tome of Allegiance": {
      "dropMeta": {
        "coordinates": [
          99999,
          99999,
          99999
        ],
        "name": "Guild Rewards",
        "type": "guild"
      },
      "dropRestriction": "never",
      "identifications": {
        "rawAgility": 2,
        "rawDefence": 2
      },
      "internalName": "Fanatic's Tome of Allegiance",
      "material": "403:0",
      "requirements": {
        "level": 100,
        "tomeSeeking": true
      },
      "restrictions": "Untradable",
      "tier": "legendary",
      "tomeType": "guildtome",
      "tomeVariant": "mastery"
    },
    "Freelancer's Tome of Allegiance": {
      "dropMeta": {
        "coordinates": [
          99999,
          99999,
          99999
        ],
        "name": "Guild Rewards",
        "type": "guild"
      },
      "dropRestriction": "never",
      "identifications": {
        "rawAgility": 2,
        "rawDexterity": 2
      },
      "internalName": "Freelancer's Tome of Allegiance",
      "material": "403:0",
      "requirements": {
        "level": 100,
        "tomeSeeking": true
      },
      "restrictions": "Untradable",
      "tier": "legendary",
      "tomeType": "guildtome",
      "tomeVariant": "mastery"
    },
    "Ghost's Tome of Allegiance": {
      "dropMeta": {
        "coordinates": [
          99999,
          99999,
          99999
        ],
        "name": "Guild Rewards",
        "type": "guild"
      },
      "dropRestriction": "never",
      "identifications": {
        "airDamage": {
          "max": 7,
          "min": 2,
          "raw": 5
        },
        "rawAgility": 3
      },
      "internalName": "Ghost's Tome of Allegiance",
      "material": "403:0",
      "requirements": {
        "level": 100,
        "tomeSeeking": true
      },
      "restrictions": "Untradable",
      "tier": "legendary",
      "tomeType": "guildtome",
      "tomeVariant": "mastery"
    },
    "Loner's Tome of Allegiance": {
      "dropMeta": {
        "coordinates": [
          99999,
          99999,
          99999
        ],
        "name": "Guild Rewards",
        "type": "guild"
      },
      "dropRestriction": "never",
      "identifications": {
        "rawIntelligence": 2,
        "rawStrength": 2
      },
      "internalName": "Loner's Tome of Allegiance",
      "material": "403:0",
      "requirements": {
        "level": 100,
        "tomeSeeking": true
      },
      "restrictions": "Untradable",
      "tier": "legendary",
      "tomeType": "guildtome",
      "tomeVariant": "mastery"
    },
    "Manipulator's Tome of Lootrun Mastery": {
      "dropMeta": {
        "coordinates": [
          99999,
          99999,
          99999
        ],
        "name": "Lootrun Rewards",
        "type": "lootrun"
      },
      "dropRestriction": "never",
      "identifications": {
        "lootBonus": {
          "max": 20,
          "min": 5,
          "raw": 15
        },
        "rawWaterDamage": {
          "max": 52,
          "min": 12,
          "raw": 40
        },
        "waterDefence": {
          "max": 10,
          "min": 2,
          "raw": 8
        }
      },
      "internalName": "Manipulator's Tome of Lootrun Mastery",
      "material": "403:0",
      "raidReward": true,
      "requirements": {
        "level": 75
      },
      "restrictions": "Soulbound",
      "tier": "fabled",
      "tomeType": "lootrun",
      "tomeVariant": "mastery"
    },
    "Mastermind's Tome of Allegiance": {
      "dropMeta": {
        "coordinates": [
          99999,
          99999,
          99999
        ],
        "name": "Guild Rewards",
        "type": "guild"
      },
      "dropRestriction": "never",
      "identifications": {
        "rawIntelligence": 3,
        "waterDamage": {
          "max": 7,
          "min": 2,
          "raw": 5
        }
      },
      "internalName": "Mastermind's Tome of Allegiance",
      "material": "403:0",
      "requirements": {
        "level": 100,
        "tomeSeeking": true
      },
      "restrictions": "Untradable",
      "tier": "legendary",
      "tomeType": "guildtome",
      "tomeVariant": "mastery"
    },
    "Mastermind's Tome of Lootrun Mastery": {
      "dropMeta": {
        "coordinates": [
          99999,
          99999,
          99999
        ],
        "name": "Lootrun Rewards",
        "type": "lootrun"
      },
      "dropRestriction": "never",
      "identifications": {
        "elementalDefense": {
          "max": 10,
          "min": 2,
          "raw": 8
        },
        "lootBonus": {
          "max": 20,
          "min": 5,
          "raw": 15
        },
        "rawElementalDamage": {
          "max": 52,
          "min": 12,
          "raw": 40
        }
      },
      "internalName": "Mastermind's Tome of Lootrun Mastery",
      "material": "403:0",
      "raidReward": true,
      "requirements": {
        "level": 75
      },
      "restrictions": "Soulbound",
      "tier": "fabled",
      "tomeType": "lootrun",
      "tomeVariant": "mastery"
    },
    "Pickpocket's Tome of Lootrun Mastery": {
      "dropMeta": {
        "coordinates": [
          99999,
          99999,
          99999
        ],
        "name": "Lootrun Rewards",
        "type": "lootrun"
      },
      "dropRestriction": "never",
      "identifications": {
        "lootBonus": {
          "max": 20,
          "min": 5,
          "raw": 15
        },
        "rawThunderDamage": {
          "max": 52,
          "min": 12,
          "raw": 40
        },
        "thunderDefence": {
          "max": 10,
          "min": 2,
          "raw": 8
        }
      },
      "internalName": "Pickpocket's Tome of Lootrun Mastery",
      "material": "403:0",
      "raidReward": true,
      "requirements": {
        "level": 75
      },
      "restrictions": "Soulbound",
      "tier": "fabled",
      "tomeType": "lootrun",
      "tomeVariant": "mastery"
    },
    "Plunderer's Tome of Lootrun Mastery": {
      "dropMeta": {
        "coordinates": [
          99999,
          99999,
          99999
        ],
        "name": "Lootrun Rewards",
        "type": "lootrun"
      },
      "dropRestriction": "never",
      "identifications": {
        "fireDefence": {
          "max": 10,
          "min": 2,
          "raw": 8
        },
        "lootBonus": {
          "max": 20,
          "min": 5,
          "raw": 15
        },
        "rawFireDamage": {
          "max": 52,
          "min": 12,
          "raw": 40
        }
      },
      "internalName": "Plunderer's Tome of Lootrun Mastery",
      "material": "403:0",
      "raidReward": true,
      "requirements": {
        "level": 75
      },
      "restrictions": "Soulbound",
      "tier": "fabled",
      "tomeType": "lootrun",
      "tomeVariant": "mastery"
    },
    "Psychopath's Tome of Allegiance": {
      "dropMeta": {
        "coordinates": [
          99999,
          99999,
          99999
        ],
        "name": "Guild Rewards",
        "type": "guild"
      },
      "dropRestriction": "never",
      "identifications": {
        "rawDexterity": 2,
        "rawStrength": 2
      },
      "internalName": "Psychopath's Tome of Allegiance",
      "material": "403:0",
      "requirements": {
        "level": 100,
        "tomeSeeking": true
      },
      "restrictions": "Untradable",
      "tier": "legendary",
      "tomeType": "guildtome",
      "tomeVariant": "mastery"
    },
    "Sadist's Tome of Allegiance": {
      "dropMeta": {
        "coordinates": [
          99999,
          99999,
          99999
        ],
        "name": "Guild Rewards",
        "type": "guild"
      },
      "dropRestriction": "never",
      "identifications": {
        "rawDexterity": 3,
        "thunderDamage": {
          "max": 7,
          "min": 2,
          "raw": 5
        }
      },
      "internalName": "Sadist's Tome of Allegiance",
      "material": "403:0",
      "requirements": {
        "level": 100,
        "tomeSeeking": true
      },
      "restrictions": "Untradable",
      "tier": "legendary",
      "tomeType": "guildtome",
      "tomeVariant": "mastery"
    },
    "Scoundrel's Tome of Lootrun Mastery": {
      "dropMeta": {
        "coordinates": [
          99999,
          99999,
          99999
        ],
        "name": "Lootrun Rewards",
        "type": "lootrun"
      },
      "dropRestriction": "never",
      "identifications": {
        "airDefence": {
          "max": 10,
          "min": 2,
          "raw": 8
        },
        "lootBonus": {
          "max": 20,
          "min": 5,
          "raw": 15
        },
        "rawAirDamage": {
          "max": 52,
          "min": 12,
          "raw": 40
        }
      },
      "internalName": "Scoundrel's Tome of Lootrun Mastery",
      "material": "403:0",
      "raidReward": true,
      "requirements": {
        "level": 75
      },
      "restrictions": "Soulbound",
      "tier": "fabled",
      "tomeType": "lootrun",
      "tomeVariant": "mastery"
    },
    "Spelunker's Tome of Lootrun Mastery": {
      "dropMeta": {
        "coordinates": [
          99999,
          99999,
          99999
        ],
        "name": "Lootrun Rewards",
        "type": "lootrun"
      },
      "dropRestriction": "never",
      "identifications": {
        "earthDefence": {
          "max": 10,
          "min": 2,
          "raw": 8
        },
        "lootBonus": {
          "max": 20,
          "min": 5,
          "raw": 15
        },
        "rawEarthDamage": {
          "max": 52,
          "min": 12,
          "raw": 40
        }
      },
      "internalName": "Spelunker's Tome of Lootrun Mastery",
      "material": "403:0",
      "raidReward": true,
      "requirements": {
        "level": 75
      },
      "restrictions": "Soulbound",
      "tier": "fabled",
      "tomeType": "lootrun",
      "tomeVariant": "mastery"
    },
    "Sycophant's Tome of Allegiance": {
      "dropMeta": {
        "coordinates": [
          99999,
          99999,
          99999
        ],
        "name": "Guild Rewards",
        "type": "guild"
      },
      "dropRestriction": "never",
      "identifications": {
        "rawAgility": 2,
        "rawIntelligence": 2
      },
      "internalName": "Sycophant's Tome of Allegiance",
      "material": "403:0",
      "requirements": {
        "level": 100,
        "tomeSeeking": true
      },
      "restrictions": "Untradable",
      "tier": "legendary",
      "tomeType": "guildtome",
      "tomeVariant": "mastery"
    },
    "Thief's Tome of Lootrun Mastery": {
      "dropMeta": {
        "coordinates": [
          99999,
          99999,
          99999
        ],
        "name": "Lootrun Rewards",
        "type": "lootrun"
      },
      "dropRestriction": "never",
      "identifications": {
        "lootBonus": {
          "max": 20,
          "min": 5,
          "raw": 15
        },
        "rawHealth": {
          "max": 52,
          "min": 12,
          "raw": 40
        },
        "rawNeutralDamage": {
          "max": 52,
          "min": 12,
          "raw": 40
        }
      },
      "internalName": "Thief's Tome of Lootrun Mastery",
      "material": "403:0",
      "raidReward": true,
      "requirements": {
        "level": 75
      },
      "restrictions": "Soulbound",
      "tier": "fabled",
      "tomeType": "lootrun",
      "tomeVariant": "mastery"
    },
    "Warlock's Tome of Allegiance": {
      "dropMeta": {
        "coordinates": [
          99999,
          99999,
          99999
        ],
        "name": "Guild Rewards",
        "type": "guild"
      },
      "dropRestriction": "never",
      "identifications": {
        "rawDexterity": 2,
        "rawIntelligence": 2
      },
      "internalName": "Warlock's Tome of Allegiance",
      "material": "403:0",
      "requirements": {
        "level": 100,
        "tomeSeeking": true
      },
      "restrictions": "Untradable",
      "tier": "legendary",
      "tomeType": "guildtome",
      "tomeVariant": "mastery"
    }
  }
}
