{
  "controller": {
    "count": 48,
    "current": 1,
    "links": {
      "next": "http://api.wynncraft.com/item/search?fullResult=True&page=2",
      "previous": null
    },
    "next": 2,
    "pages": 3,
    "payload": {
      "type": [
        "tools"
      ]
    },
    "previous": null
  },
  "results": {
    "Ⓙ Gathering Scythe T1": {
      "gatheringSpeed": 8,
      "identified": true,
      "internalName": "Gathering Scythe 1",
      "material": "290:0",
      "requirements": {
        "level": 1
      },
      "tier": "common",
      "toolType": "scythe"
    },
    "Ⓙ Gathering Scythe T10": {
      "gatheringSpeed": 230,
      "identified": true,
      "internalName": "Gathering Scythe 10",
      "material": "292:0",
      "requirements": {
        "level": 85
      },
      "tier": "common",
      "toolType": "scythe"
    },
    "Ⓙ Gathering Scythe T11": {
      "gatheringSpeed": 275,
      "identified": true,
      "internalName": "Gathering Scythe 11",
      "material": "293:0",
      "requirements": {
        "level": 95
      },
      "tier": "common",
      "toolType": "scythe"
    },
    "Ⓙ Gathering Scythe T12": {
      "gatheringSpeed": 330,
      "identified": true,
      "internalName": "Gathering Scythe 12",
      "material": "293:0",
      "requirements": {
        "level": 105
      },
      "tier": "common",
      "toolType": "scythe"
    },
    "Ⓙ Gathering Scythe T2": {
      "gatheringSpeed": 16,
      "identified": true,
      "internalName": "Gathering Scythe 2",
      "material": "290:0",
      "requirements": {
        "level": 5
      },
      "tier": "common",
      "toolType": "scythe"
    },
    "Ⓙ Gathering Scythe T3": {
      "gatheringSpeed": 28,
      "identified": true,
      "internalName": "Gathering Scythe 3",
      "material": "290:0",
      "requirements": {
        "level": 15
      },
      "tier": "common",
      "toolType": "scythe"
    },
    "Ⓙ Gathering Scythe T4": {
      "gatheringSpeed": 45,
      "identified": true,
      "internalName": "Gathering Scythe 4",
      "material": "291:0",
      "requirements": {
        "level": 25
      },
      "tier": "common",
      "toolType": "scythe"
    },
    "Ⓙ Gathering Scythe T5": {
      "gatheringSpeed": 65,
      "identified": true,
      "internalName": "Gathering Scythe 5",
      "material": "291:0",
      "requirements": {
        "level": 35
      },
      "tier": "common",
      "toolType": "scythe"
    },
    "Ⓙ Gathering Scythe T6": {
      "gatheringSpeed": 90,
      "identified": true,
      "internalName": "Gathering Scythe 6",
      "material": "291:0",
      "requirements": {
        "level": 45
      },
      "tier": "common",
      "toolType": "scythe"
    },
    "Ⓙ Gathering Scythe T7": {
      "gatheringSpeed": 120,
      "identified": true,
      "internalName": "Gathering Scythe 7",
      "material": "294:0",
      "requirements": {
        "level": 55
      },
      "tier": "common",
      "toolType": "scythe"
    },
    "Ⓙ Gathering Scythe T8": {
      "gatheringSpeed": 150,
      "identified": true,
      "internalName": "Gathering Scythe 8",
      "material": "294:0",
      "requirements": {
        "level": 65
      },
      "tier": "common",
      "toolType": "scythe"
    },
    "Ⓙ Gathering Scythe T9": {
      "gatheringSpeed": 190,
      "identified": true,
      "internalName": "Gathering Scythe 9",
      "material": "292:0",
      "requirements": {
        "level": 75
      },
      "tier": "common",
      "toolType": "scythe"
    },
    "Ⓚ Gathering Rod T2": {
      "gatheringSpeed": 16,
      "identified": true,
      "internalName": "Gathering Rod 2",
      "material": "279:76",
      "requirements": {
        "level": 5
      },
      "tier": "common",
      "toolType": "rod"
    },
    "Ⓚ Gathering Rod T3": {
      "gatheringSpeed": 28,
      "identified": true,
      "internalName": "Gathering Rod 3",
      "material": "279:76",
      "requirements": {
        "level": 15
      },
      "tier": "common",
      "toolType": "rod"
    },
    "Ⓚ Gathering Rod T4": {
      "gatheringSpeed": 45,
      "identified": true,
      "internalName": "Gathering Rod 4",
      "material": "279:77",
      "requirements": {
        "level": 25
      },
      "tier": "common",
      "toolType": "rod"
    },
    "Ⓚ Gathering Rod T5": {
      "gatheringSpeed": 65,
      "identified": true,
      "internalName": "Gathering Rod 5",
      "material": "279:77",
      "requirements": {
        "level": 35
      },
      "tier": "common",
      "toolType": "rod"
    },
    "Ⓚ Gathering Rod T6": {
      "gatheringSpeed": 90,
      "identified": true,
      "internalName": "Gathering Rod 6",
      "material": "279:77",
      "requirements": {
        "level": 45
      },
      "tier": "common",
      "toolType": "rod"
    },
    "Ⓚ Gathering Rod T7": {
      "gatheringSpeed": 120,
      "identified": true,
      "internalName": "Gathering Rod 7",
      "material": "279:79",
      "requirements": {
        "level": 55
      },
      "tier": "common",
      "toolType": "rod"
    },
    "Ⓚ Gathering Rod T8": {
      "gatheringSpeed": 150,
      "identified": true,
      "internalName": "Gathering Rod 8",
      "material": "279:79",
      "requirements": {
        "level": 65
      },
      "tier": "common",
      "toolType": "rod"
    },
    "Ⓚ Gathering Rod T9": {
      "gatheringSpeed": 190,
      "identified": true,
      "internalName": "Gathering Rod 9",
      "material": "279:78",
      "requirements": {
        "level": 75
      },
      "tier": "common",
      "toolType": "rod"
    }
  }
}
